4 Collect network data and API requests | Introduction to Network Analysis Using R
…
## opening file input connection.

## 
 Found 22 records...
 Imported 22 records. Simplifying...

## closing file input connection.

nrow(rt)

## [1] 22

rt

## # A tibble: 22 x 88
##    user_id status_id created_at          screen_name text  source
##    <chr>   <chr>     <dttm>              <chr>       <chr> <chr> 
##  1 486993… 11222553… 2019-04-27 21:45:02 siddiue_1   It’s… Twitt…
##  2 206063… 11222553… 2019-04-27 21:45:02 SunnyAtThe… "New… Twitt…
##  3 224166… 11222553… 2019-04-27 21:45:03 Ballout_za… "Goi… Twitt…
##  4 372574… 11222553… 2019-04-27 21:45:06 INBulldogR… "We … Faceb…
##  5 419144… 11222553… 2019-04-27 21:45:07 Connected_… "Goi… Twitt…
##  6 419144… 11222554… 2019-04-27 21:45:26 Connected_… Roun… Twitt…
##  7 515705… 11222553… 2019-04-27 21:45:08 lovinglake  "New… Twitt…
##  8 705320… 11222554… 2019-04-27 21:45:12 dainerrr8   New … Twitt…
##  9 110939… 11222554… 2019-04-27 21:45:13 dullncorin… Glad… Twitt…
## 10 304450… 11222554… 2019-04-27 21:45:13 sayragonza… It’s… Twitt…
## # … with 12 more rows, and 82 more variables: display_text_width <dbl>,
## #   reply_to_status_id <chr>, reply_to_user_id <chr>,
## #   reply_to_screen_name <chr>, is_quote <lgl>, is_retweet <lgl>,
## #   favorite_count <int>, retweet_count <int>, hashtags <list>,
## #   symbols <list>, urls_url <list>, urls_t.co <list>,
## #   urls_expanded_url <list>, media_url <list>, media_t.co <list>,
## #   media_expanded_url <list>, media_type <list>, ext_media_url <list>,
## #   ext_media_t.co <list>, ext_media_expanded_url <list>,
## #   ext_media_type <chr>, mentions_user_id <list>,
…
## opening file input connection.

## 
 Found 500 records...
 Found 1000 records...
 Found 1244 records...
 Imported 1244 records. Simplifying...

## closing file input connection.

djt1

## # A tibble: 1,244 x 88
##    user_id status_id created_at          screen_name text  source
##    <chr>   <chr>     <dttm>              <chr>       <chr> <chr> 
##  1 826425… 11222554… 2019-04-27 21:45:28 Elohim_Gad… "Thi… Twitt…
##  2 752949… 11222554… 2019-04-27 21:45:28 hoy2_hoy    She’… Twitt…
##  3 101924… 11222554… 2019-04-27 21:45:28 arrugas12   "Am … Twitt…
##  4 149655… 11222554… 2019-04-27 21:45:28 cat7912     "Hea… Twitt…
##  5 498330… 11222554… 2019-04-27 21:45:28 xa_nico     Cong… Twitt…
##  6 978023… 11222554… 2019-04-27 21:45:28 Dkrennrepc… Espa… Twitt…
##  7 909335… 11222554… 2019-04-27 21:45:28 genoveva_s… "Cru… Twitt…
##  8 404802… 11222554… 2019-04-27 21:45:28 Pritz56Cla… Exac… Twitt…
##  9 111638… 11222554… 2019-04-27 21:45:28 Oscarchars9 I wo… Twitt…
## 10 323348… 11222554… 2019-04-27 21:45:29 wilkin_mol… @Ken… Twitt…
## # … with 1,234 more rows, and 82 more variables: display_text_width <dbl>,
## #   reply_to_status_id <chr>, reply_to_user_id <chr>,
## #   reply_to_screen_name <chr>, is_quote <lgl>, is_retweet <lgl>,
## #   favorite_count <int>, retweet_count <int>, hashtags <list>,
## #   symbols <list>, urls_url <list>, urls_t.co <list>,
## #   urls_expanded_url <list>, media_url <list>, media_t.co <list>,
## #   media_expanded_url <list>, media_type <list>, ext_media_url <list>,
## #   ext_media_t.co <list>, ext_media_expanded_url <list>,
## #   ext_media_type <chr>, mentions_user_id <list>,
…
## # A tibble: 5 x 2
##   user       user_id           
##   <chr>      <chr>             
## 1 drewconway 846137120209190912
## 2 drewconway 6156562           
## 3 drewconway 36133587          
## 4 drewconway 5850692           
## 5 drewconway 132496568

4.4.6.2 filter on the following user list

info.following=lookup_users(user.following$user_id)
info.following

## # A tibble: 290 x 88
##    user_id status_id created_at          screen_name text  source
##    <chr>   <chr>     <dttm>              <chr>       <chr> <chr> 
##  1 846137… 11222205… 2019-04-27 19:26:55 dog_feelin… WE A… Twitt…
##  2 6156562 11206873… 2019-04-23 13:54:13 aewo        We a… Twitt…
##  3 361335… 11222387… 2019-04-27 20:38:56 bearloga    @tar… Tweet…
##  4 5850692 11222044… 2019-04-27 18:22:46 Aaroth      @mir… Twitt…
##  5 132496… 11222486… 2019-04-27 21:18:27 NewYorkSta… "Dev… Twitt…
##  6 152765… 11218464… 2019-04-26 18:40:19 drewharwell How … Tweet…
##  7 160392… 11222517… 2019-04-27 21:30:42 pklinkne    Trum… Twitt…
##  8 235070… 11221966… 2019-04-27 17:51:56 stasavage   Cong… Twitt…
##  9 881321… 11222415… 2019-04-27 20:50:20 BackAftaTh… "@ca… Twitt…
## 10 269349… 11222463… 2019-04-27 21:09:13 TheFFBalle… Comi… Twitt…
## # … with 280 more rows, and 82 more variables: display_text_width <int>,
## #   reply_to_status_id <chr>, reply_to_user_id <chr>,
## #   reply_to_screen_name <chr>, is_quote <lgl>, is_retweet <lgl>,
## #   favorite_count <int>, retweet_count <int>, hashtags <list>,
## #   symbols <list>, urls_url <list>, urls_t.co <list>,
## #   urls_expanded_url <list>, media_url <list>, media_t.co <list>,
## #   media_expanded_url <list>, media_type <list>, ext_media_url <list>,
## #   ext_media_t.co <list>, ext_media_expanded_url <list>,
## #   ext_media_type <chr>, mentions_user_id <list>,
…
##choose the filtering criterion: description, verified (blue check mark), location
info.following%>%select(geo_coords,country,country_code,location)%>%lat_lng()

## # A tibble: 290 x 8
##    geo_coords country country_code location   lat   lng coords_coords
##    <list>     <chr>   <chr>        <chr>    <dbl> <dbl>         <dbl>
##  1 <dbl [2]>  <NA>    <NA>         ""          NA    NA            NA
##  2 <dbl [2]>  <NA>    <NA>         NYC         NA    NA            NA
##  3 <dbl [2]>  <NA>    <NA>         Pittsbu…    NA    NA            NA
##  4 <dbl [2]>  <NA>    <NA>         Philade…    NA    NA            NA
##  5 <dbl [2]>  <NA>    <NA>         New York    NA    NA            NA
##  6 <dbl [2]>  <NA>    <NA>         D.C.        NA    NA            NA
##  7 <dbl [2]>  <NA>    <NA>         Hamilto…    NA    NA            NA
##  8 <dbl [2]>  <NA>    <NA>         New Yor…    NA    NA            NA
##  9 <dbl [2]>  <NA>    <NA>         ""          NA    NA            NA
## 10 <dbl [2]>  <NA>    <NA>         Phoenix…    NA    NA            NA
## # … with 280 more rows, and 1 more variable: bbox_coords <dbl>
…
rate_limit("get_friends")

## # A tibble: 1 x 7
##   query limit remaining reset reset_at            timestamp           app  
##   <chr> <int>     <int> <tim> <dttm>              <dttm>              <chr>
## 1 frie…    15        14 14.9… 2019-04-27 18:02:45 2019-04-27 17:47:47 Test…

get_friends(c("drewconway","BarackObama"))

## 1 friend networks collected!

## 2 friend networks collected!

## # A tibble: 5,290 x 2
##    user       user_id           
##    <chr>      <chr>             
##  1 drewconway 846137120209190912
##  2 drewconway 6156562           
##  3 drewconway 36133587          
##  4 drewconway 5850692           
##  5 drewconway 132496568         
##  6 drewconway 15276573          
##  7 drewconway 16039252          
##  8 drewconway 2350709449        
##  9 drewconway 881321968301223937
## 10 drewconway 2693496433        
## # … with 5,280 more rows
…
